DSGC_RNN_+	DSGC_RNN_+_std	DeepNC_L	DeepNC_L_std	GraphRNN-S	GraphRNN-S_std	GraphRNN	GraphRNN_std	KronEM	KronEM_std	EvoGraph_V0	EvoGraph_V0	EvoGraph_V1	EvoGraph_V1_std	EvoGraph_V2	EvoGraph_V2_std
0.0281	0.0209	0.0342	0.0301	0.0299	0.0654	0.0290	0.0664	0.5859	0.2182	0.0175	0.0260	0.7073	0.0447	0.0386	0.0494
0.0372	0.0201	0.0476	0.0396	0.0484	0.0845	0.0454	0.0892	0.5742	0.2282	0.0312	0.0350	0.7019	0.0449	0.0698	0.0611
0.0579	0.0239	0.0591	0.0453	0.0640	0.0878	0.0631	0.1030	0.5733	0.2406	0.0447	0.0388	0.6984	0.0523	0.1005	0.0704
0.0554	0.0271	0.0684	0.0495	0.0859	0.1162	0.0742	0.1111	0.5633	0.2468	0.0582	0.0479	0.6987 	0.0644	0.1299	0.0823
0.0582	0.0269	0.0757	0.0518	0.1069	0.1295	0.0916 	0.1261	0.5590	0.2534	0.0714	0.0529	0.6950	0.0655	0.1584	0.0888
0.0672	0.0307	0.0848	0.0548	0.1223	0.1245	0.1098	0.1394	0.5601	0.2337	0.0853	0.0574	0.6939	0.0643	0.1869	0.0944
0.0654	0.0336	0.0904	0.0543	0.1415	0.1406	0.1195	0.1363	0.5620	0.2339	0.0973	0.0611	0.6920	0.0747	0.2121	0.0996
0.0683	0.0302	0.0983	0.0562	0.1534	0.1368	0.1294	0.1338	0.5582	0.2405	0.1085	0.0625	0.6938	0.0764	0.2366	0.1024
0.0781	0.0414	0.1051	0.0581	0.1757	0.1513	0.1503	0.1551	0.5581	0.2267	0.1213	0.0694	0.6882	0.0783	0.2619	0.1085
0.0867	0.0354 	0.1103	0.0586	0.1871	0.1445	0.1575	0.1442	0.5530	0.2500	0.1326	0.0719	0.6844	0.0821	0.2833	0.1083
