DSGC_RNN_+	DSGC_RNN_+_std	DeepNC_L	DeepNC_L_std
0.0448	0.0125	0.0549	0.0184
0.0334	0.0180	0.0465	0.0413
0.0514	0.0245	0.0546	0.0399
0.0591	0.0270	0.0636	0.0506
0.0545	0.0266	0.0739	0.0502
0.0702	0.0306	0.0803	0.0541
0.0639	0.0330	0.0923	0.0580
0.0697	0.0313	0.0966	0.0582
0.0766	0.0390	0.1069	0.0637
0.0839	0.0364	0.1117	0.0659
