DSGC_RNN_+	DSGC_RNN_+_std	DeepNC_L	DeepNC_L_std
0.0055	0.0065	0.4337	0.0853
0.0182	0.0110	0.4500	0.0751
0.0218	0.0111	0.4629	0.0751
0.0314	0.0171	0.4721	0.0665
0.0339	0.0151	0.4780	0.0640
0.0413	0.0142	0.4779	0.0686
0.0483	0.0192	0.4791	0.0629
0.0506	0.0193	0.4802	0.0647
0.0609	0.0222	0.4817	0.0628
0.0770	0.0266	0.4870	0.0647
