DSGC_RNN_+	DSGC_RNN_+_std	DeepNC_L	DeepNC_L_std
0.0415	0.0378	0.0756	0.0402
0.1591	0.0841	0.1290	0.0677
0.1239	0.0646	0.1603	0.0776
0.1368	0.0647	0.1891	0.0842
0.1563	0.0858	0.1975	0.0896
0.1707	0.0691	0.2184	0.1012
0.1912	0.0698	0.2385	0.1120
0.2195	0.0745	0.2411	0.1020
0.2107	0.0763	0.2580	0.1117
0.2573	0.0815	0.2575	0.1056
