DSGC_RNN_+	DSGC_RNN_+_std	DeepNC_L	DeepNC_L_std
0.0072	0.0029	0.1020	0.0093
0.0135	0.0051	0.1070	0.0106
0.0145	0.0057	0.1106	0.0113
0.0211	0.0071	0.1140	0.0124
0.0229	0.0082	0.1183	0.0127
0.0245	0.0084	0.1217	0.0146
0.0485	0.0105	0.1250	0.0155
0.0316	0.0102	0.1283	0.0161
0.0313	0.0106	0.1322	0.0168
0.0667	0.0126	0.1353	0.0179
